{
  "shell_port": 35165,
  "iopub_port": 48365,
  "stdin_port": 45305,
  "control_port": 36343,
  "hb_port": 59987,
  "ip": "127.0.0.1",
  "key": "ea0bf378-42fed9fd4ed29767f712abce",
  "transport": "tcp",
  "signature_scheme": "hmac-sha256",
  "kernel_name": ""
}